type,p,r,f1,auc
bug,0.6631853785900783,0.4774436090225564,0.5551912568306011,0.6959853036156031
bug,0.7247956403269755,0.49534450651769085,0.588495575221239,0.7216471318508781
bug,0.6774193548387096,0.5121951219512195,0.5833333333333334,0.7179162301113521
bug,0.6774193548387096,0.5018382352941176,0.5765575501583948,0.704982984929509
bug,0.6934306569343066,0.5428571428571428,0.6089743589743589,0.7426968864468865
bug,0.6479591836734694,0.4875239923224568,0.556407447973713,0.6989284448084893
bug,0.7007481296758105,0.545631067961165,0.6135371179039302,0.7409313650424183
bug,0.6706161137440758,0.5309568480300187,0.5926701570680627,0.7097430009015375
bug,0.6320541760722348,0.5436893203883495,0.5845511482254696,0.7057364246118036
bug,0.6870229007633588,0.5018587360594795,0.5800214822771214,0.7275415401651263
bug,0.7175,0.5227686703096539,0.6048472075869337,0.7199711596842744
bug,0.6535626535626535,0.49168207024029575,0.561181434599156,0.7118092713298959
bug,0.6909090909090909,0.48628884826325414,0.5708154506437768,0.7219597077383736
bug,0.7240506329113924,0.5306122448979592,0.6124197002141327,0.7421271936494419
bug,0.635678391959799,0.48936170212765956,0.5530054644808743,0.6824685380603775
bug,0.688,0.4822429906542056,0.567032967032967,0.7161572650613413
bug,0.6666666666666666,0.49907578558225507,0.5708245243128964,0.6894031520575932
bug,0.6590330788804071,0.48592870544090055,0.5593952483801296,0.7058612119587729
bug,0.6486486486486487,0.532347504621072,0.5847715736040608,0.7018663658916237
bug,0.687960687960688,0.509090909090909,0.5851619644723093,0.7108468659887691
bug,0.6888361045130641,0.5370370370370371,0.603537981269511,0.707907620263942
bug,0.6989247311827957,0.47706422018348627,0.5670665212649946,0.7178868704052495
bug,0.67828418230563,0.4791666666666667,0.5615982241953386,0.7077553920851022
bug,0.6705882352941176,0.5277777777777778,0.5906735751295337,0.6944976585781183
bug,0.7135416666666666,0.5027522935779817,0.5898815931108718,0.7200771614314357
bug,0.7095890410958904,0.49053030303030304,0.58006718924972,0.7293374566925291
bug,0.6430379746835443,0.47388059701492535,0.5456498388829216,0.6965513987972048
bug,0.6641025641025641,0.48411214953271026,0.5599999999999999,0.7002404943833906
bug,0.7298701298701299,0.5026833631484794,0.5953389830508474,0.7262438980018798
bug,0.71,0.5182481751824818,0.59915611814346,0.7175920303144394
bug,0.711340206185567,0.5073529411764706,0.592274678111588,0.7241644385026738
bug,0.7008310249307479,0.4625228519195612,0.5572687224669604,0.7080891240046888
bug,0.654228855721393,0.4962264150943396,0.5643776824034334,0.7050537994940104
bug,0.6955380577427821,0.4740608228980322,0.5638297872340425,0.7154058397259028
bug,0.6843434343434344,0.49272727272727274,0.572938689217759,0.7025694339049932
bug,0.6861702127659575,0.47601476014760147,0.5620915032679739,0.7013927305665149
bug,0.6913265306122449,0.48134991119005327,0.5675392670157068,0.7133120957328791
bug,0.6745406824146981,0.4876660341555977,0.566079295154185,0.6994164017645228
bug,0.7072538860103627,0.5093283582089553,0.5921908893709328,0.742791446519442
bug,0.6846361185983828,0.47654784240150094,0.5619469026548672,0.716416205745474
bug,0.6778350515463918,0.4816849816849817,0.5631691648822269,0.7001333381930397
bug,0.6501305483028721,0.4654205607476635,0.5424836601307189,0.7084142591859722
bug,0.6870229007633588,0.5182341650671785,0.5908096280087527,0.7164367275083439
bug,0.6582278481012658,0.49242424242424243,0.5633802816901409,0.699499524227785
bug,0.6554054054054054,0.5585412667946257,0.6031088082901553,0.718155922588848
bug,0.6598984771573604,0.49335863377609107,0.5646036916395223,0.7079003886587308
bug,0.7054263565891473,0.489247311827957,0.5777777777777778,0.7141137371201233
bug,0.6602870813397129,0.5027322404371585,0.5708376421923476,0.6912674559805707
bug,0.6882494004796164,0.5404896421845574,0.6054852320675106,0.7110294431341
bug,0.6808510638297872,0.4758364312267658,0.5601750547045953,0.7099474321454864
