type,p,r,f1,auc
multiple,0.7012195121951219,0.6406685236768802,0.6695778748180494,0.7736030218620747
multiple,0.7210682492581603,0.6712707182320442,0.6952789699570815,0.8063732726020272
multiple,0.75,0.6639344262295082,0.7043478260869565,0.8068151488333544
multiple,0.7358490566037735,0.6410958904109589,0.6852122986822842,0.7881313663505445
multiple,0.696319018404908,0.6412429378531074,0.6676470588235294,0.776480409146625
multiple,0.7524752475247525,0.6229508196721312,0.6816143497757847,0.8027378594406283
multiple,0.7467948717948718,0.6180371352785146,0.6763425253991291,0.785805509943441
multiple,0.6932515337423313,0.6438746438746439,0.6676514032496307,0.7919240642012919
multiple,0.718213058419244,0.5971428571428572,0.6521060842433698,0.7771393298059964
multiple,0.7041800643086816,0.6311239193083573,0.6656534954407294,0.7757317624456123
multiple,0.7170418006430869,0.6109589041095891,0.6597633136094675,0.7852722163681067
multiple,0.7066246056782335,0.6436781609195402,0.6736842105263158,0.7832330763365246
multiple,0.6962025316455697,0.632183908045977,0.6626506024096386,0.7786756191928605
multiple,0.6957831325301205,0.66,0.6774193548387097,0.7753756613756614
multiple,0.6801242236024845,0.6311239193083573,0.6547085201793722,0.7897984121602531
multiple,0.740625,0.6790830945558739,0.7085201793721974,0.8121621240137197
multiple,0.7259036144578314,0.6769662921348315,0.7005813953488372,0.7863690124186872
multiple,0.7654723127035831,0.6041131105398457,0.6752873563218391,0.7829133128239707
multiple,0.7217391304347827,0.680327868852459,0.70042194092827,0.7975789118799781
multiple,0.7160883280757098,0.6504297994269341,0.6816816816816816,0.794973675667283
multiple,0.7278688524590164,0.5983827493261455,0.6568047337278107,0.7756977201257862
multiple,0.7561728395061729,0.6621621621621622,0.7060518731988471,0.802997542997543
multiple,0.6723646723646723,0.6723646723646723,0.6723646723646723,0.7744703957575245
multiple,0.6878787878787879,0.6735905044510386,0.6806596701649175,0.7953267644428038
multiple,0.7230769230769231,0.6351351351351351,0.6762589928057553,0.7661425061425061
multiple,0.7181818181818181,0.6475409836065574,0.6810344827586207,0.7821406998468822
multiple,0.7038327526132404,0.5958702064896755,0.645367412140575,0.7688655831631496
multiple,0.6892307692307692,0.6607669616519174,0.674698795180723,0.7772400442477876
multiple,0.6798780487804879,0.6408045977011494,0.6597633136094675,0.7599480358101047
multiple,0.716012084592145,0.6829971181556196,0.6991150442477876,0.800294541447703
multiple,0.7415384615384616,0.6584699453551912,0.6975397973950797,0.7873136949162066
multiple,0.7018072289156626,0.6526610644257703,0.6763425253991291,0.7867418324113565
multiple,0.7228915662650602,0.6539509536784741,0.6866952789699571,0.7931121660720807
multiple,0.716012084592145,0.6422764227642277,0.6771428571428572,0.7761629947905697
multiple,0.7204968944099379,0.6338797814207651,0.6744186046511629,0.7824076025116945
multiple,0.7258064516129032,0.6392045454545454,0.6797583081570997,0.8026590345138732
multiple,0.7098765432098766,0.6388888888888888,0.6725146198830408,0.7734915611814346
multiple,0.6936026936026936,0.5868945868945868,0.6358024691358023,0.7665792220247666
multiple,0.7129629629629629,0.6543909348441926,0.6824224519940916,0.7809923470466366
multiple,0.7446153846153846,0.6402116402116402,0.6884779516358462,0.7745638780121539
multiple,0.6545961002785515,0.6714285714285714,0.6629055007052186,0.7663350970017637
multiple,0.6890243902439024,0.6627565982404692,0.6756352765321375,0.7773846458979699
multiple,0.7053571428571429,0.6694915254237288,0.6869565217391305,0.7881708158981079
multiple,0.6932907348242812,0.6439169139465876,0.6676923076923077,0.7689683812985391
multiple,0.6852941176470588,0.6714697406340058,0.678311499272198,0.7665140984347629
multiple,0.717201166180758,0.6776859504132231,0.6968838526912181,0.7978931241918255
multiple,0.653179190751445,0.6588921282798834,0.656023222060958,0.7601014747091625
multiple,0.6734104046242775,0.6913946587537092,0.6822840409956076,0.7839542543977965
multiple,0.6883116883116883,0.5988700564971752,0.6404833836858007,0.770851825239162
multiple,0.7147435897435898,0.6246498599439776,0.6666666666666666,0.7761848457976155
