type,p,r,f1,auc
all,0.6161849710982659,0.5658174097664543,0.5899280575539568,0.6977799168492842
all,0.6140724946695096,0.6095238095238096,0.6117896972915562,0.7122012884301361
all,0.6241457858769932,0.5930735930735931,0.6082130965593785,0.7212062897482866
all,0.6215909090909091,0.5697916666666667,0.5945652173913043,0.6977416394779772
all,0.6572769953051644,0.5668016194331984,0.6086956521739131,0.7214512378931147
all,0.6296728971962616,0.5608740894901144,0.593285635663181,0.708621971160993
all,0.6359393232205367,0.5943293347873501,0.6144306651634724,0.7214591212479795
all,0.5906113537117904,0.5829741379310345,0.5867678958785251,0.6835091620525191
all,0.6323699421965318,0.5991237677984665,0.6152980877390326,0.7215884892135851
all,0.6279904306220095,0.5585106382978723,0.5912162162162161,0.7075492640278679
all,0.621773288439955,0.5862433862433862,0.6034858387799563,0.7098960131998004
all,0.6449771689497716,0.5848861283643892,0.6134636264929425,0.7211239520754845
all,0.6418764302059496,0.5949098621420997,0.6175013758943314,0.7203640492804243
all,0.6330597889800703,0.5660377358490566,0.5976757055893747,0.7031084088867108
all,0.6057585825027686,0.5900755124056095,0.5978142076502733,0.6996443299719902
all,0.5958605664488017,0.5800636267232238,0.5878559914024718,0.6823407263069797
all,0.608342989571263,0.5651237890204521,0.5859375,0.696287228549188
all,0.6038592508513053,0.5623678646934461,0.5823754789272031,0.6871266111982541
all,0.6020066889632107,0.5800214822771214,0.5908096280087528,0.7161420911413423
all,0.6212290502793296,0.5815899581589958,0.6007563479200433,0.6931013368711093
all,0.6012861736334405,0.6097826086956522,0.6055045871559632,0.6986271378528746
all,0.6152099886492622,0.5796791443850268,0.5969162995594713,0.7021834938466339
all,0.6393805309734514,0.609704641350211,0.6241900647948163,0.7188209341322264
all,0.6311111111111111,0.5997888067581837,0.6150514347590688,0.7137679584568064
all,0.5931428571428572,0.5574650912996778,0.574750830564784,0.681357919557003
all,0.6072234762979684,0.5717321997874601,0.5889436234263821,0.700979475820391
all,0.6194285714285714,0.584051724137931,0.6012201885745979,0.7095922304149992
all,0.6274298056155507,0.6077405857740585,0.6174282678002125,0.7141676871789638
all,0.5973003374578177,0.5828759604829857,0.59,0.7031876197240696
all,0.6093073593073594,0.5932560590094836,0.601174586225307,0.7067981187703007
all,0.6096256684491979,0.5840163934426229,0.5965463108320251,0.6918972700176128
all,0.5985090521831736,0.5915789473684211,0.5950238221281101,0.6905701754385964
all,0.5897435897435898,0.5446716899892358,0.566312255176273,0.6839524282960523
all,0.6164229471316085,0.5911542610571737,0.6035242290748898,0.7063027539364901
all,0.5995475113122172,0.572354211663067,0.5856353591160222,0.6978813123521547
all,0.6124031007751938,0.572463768115942,0.5917602996254681,0.6972927909581509
all,0.6393831553973903,0.5626304801670147,0.5985563575791227,0.7032434734415483
all,0.6097023153252481,0.5772442588726514,0.593029490616622,0.690907784948284
all,0.6139534883720931,0.5540398740818469,0.5824600110314397,0.6933421499869367
all,0.6033898305084746,0.5545171339563862,0.577922077922078,0.6812814105552202
all,0.6066298342541436,0.5993449781659389,0.6029654036243821,0.7082526733830761
all,0.6217440543601359,0.5871657754010695,0.603960396039604,0.7119489435189816
all,0.611597374179431,0.5985010706638115,0.604978354978355,0.7104448727859836
all,0.59613196814562,0.5610278372591007,0.5780474351902922,0.6878634441852352
all,0.6137689614935823,0.563169164882227,0.5873813512004468,0.6947641803093637
all,0.6268156424581005,0.6038751345532831,0.6151315789473684,0.7265286409026567
all,0.6029246344206974,0.5612565445026177,0.5813449023861171,0.6900298144359712
all,0.6209223847019123,0.5847457627118644,0.6022913256955811,0.6992096877644041
all,0.5766666666666667,0.5647442872687704,0.5706432105552501,0.6905252869999562
all,0.6216216216216216,0.5903743315508021,0.605595172792101,0.7201383278404014
