type,p,r,f1,auc
single,0.6662444585180494,0.44164567590260284,0.5311789952032315,0.7148385927733633
single,0.6354973198332341,0.456763698630137,0.5315068493150685,0.7033008281781447
single,0.6511182108626198,0.42959527824620575,0.5176530353060707,0.7014724674326677
single,0.6514875531268974,0.45255166596372837,0.5340965654554504,0.7075455906118984
single,0.6424715056988602,0.45228040540540543,0.5308550185873606,0.6997381271357564
single,0.6560587515299877,0.4398851046368486,0.5266519282731515,0.7002142649111164
single,0.6275033377837116,0.3971271651880017,0.4864165588615782,0.6838034513388936
single,0.6309448319594166,0.421431596781025,0.505332656170645,0.6986400871537496
single,0.6492178098676293,0.45720338983050846,0.5365489806066633,0.7083949448958171
single,0.6339285714285714,0.43217391304347824,0.513960703205791,0.7029255306112445
single,0.6648160999306038,0.400836820083682,0.5001305142260507,0.7022734862582913
single,0.6244430299172502,0.4188727583262169,0.501405571173013,0.6905839227421773
single,0.6393659180977543,0.40826655419654156,0.4983268983268984,0.6958943430996267
single,0.6546158812136863,0.4190082644628099,0.5109599395313681,0.7102431241983856
single,0.6417079207920792,0.4448734448734449,0.5254623764884723,0.7125996584341765
single,0.6476072094468615,0.443593018305662,0.5265285497726125,0.7070456547154322
single,0.6577540106951871,0.4620200333889816,0.5427800931600881,0.7037013818898628
single,0.6541935483870968,0.42285237698081735,0.5136778115501519,0.7089444101969032
single,0.6574074074074074,0.41261934412619344,0.5070135169599592,0.7076063627346854
single,0.6452442159383034,0.4239864864864865,0.5117227319062181,0.70026272231283
single,0.6370558375634517,0.4305317324185249,0.5138178096212896,0.7003158923577978
single,0.6476443264764432,0.40548400498545906,0.4987225344915687,0.6974602555971413
single,0.6510862409479921,0.4125990821860659,0.5051072522982635,0.699877430580363
single,0.6451612903225806,0.4188034188034188,0.5079036019694222,0.7001319328713855
single,0.6653671215074723,0.4240165631469979,0.5179564997470916,0.7112587062966373
single,0.6421725239616614,0.4236930860033727,0.5105410210820421,0.6974527936202376
single,0.6156269691241336,0.41877411058722674,0.498469387755102,0.6896135538159587
single,0.6476617552850736,0.42107455226988755,0.5103483089348814,0.6968777635563559
single,0.6319657072872015,0.4380305602716469,0.5174229130107796,0.701723451809326
single,0.6235366605052373,0.4286319356204998,0.5080321285140563,0.6919224512368625
single,0.642903018625562,0.42595744680851066,0.5124136165856157,0.7020471880588299
single,0.6337395766516998,0.41356215989953954,0.5005065856129685,0.693732210281028
single,0.6387054161162483,0.4052808046940486,0.49589743589743585,0.6903712223673334
single,0.6403450564034505,0.4070012652889076,0.4976792160907684,0.6920677266175375
single,0.6511041009463723,0.42874948068134605,0.5170340681362725,0.6942980411559958
single,0.6348387096774194,0.423407917383821,0.508002065049045,0.7040897089248839
single,0.6486486486486487,0.44,0.5243296921549156,0.7000386697602475
single,0.6529680365296804,0.41690962099125367,0.5088967971530249,0.7010944090962969
single,0.6339231238560098,0.4323761964211402,0.5141019297377536,0.6960592317174891
single,0.6511627906976745,0.4418604651162791,0.5264720435428005,0.7046717458278606
single,0.6492082825822169,0.4549722577891592,0.5350062735257215,0.7159981198738709
single,0.6322620519159456,0.4300126103404792,0.5118839129347011,0.690475878891778
single,0.6702737110120942,0.43422680412371134,0.527027027027027,0.7142684869786254
single,0.6442185514612452,0.430939226519337,0.5164247517188694,0.7004681571086617
single,0.6458868894601543,0.42138364779874216,0.5100228368434407,0.7022663666396061
single,0.6240554156171285,0.42605331040412725,0.5063873275421563,0.6949050874420117
single,0.6406737367436057,0.42934782608695654,0.5141426783479349,0.6988945597980925
single,0.6403785488958991,0.4270088346655448,0.5123674911660778,0.6971965684297818
single,0.655893536121673,0.43505674653215637,0.5231235784685367,0.7057859252023961
single,0.6422518159806295,0.4553648068669528,0.532898041185334,0.707117961092798
