bug,0.7065390749601276,0.4056776556776557,0.5154159394997092,0.7580380013528348
bug,0.6982892690513219,0.4070716228467815,0.5143184421534936,0.7550005450749374
bug,0.6863711001642037,0.3977164605137964,0.5036144578313254,0.7616141772094744
bug,0.7084639498432602,0.4124087591240876,0.5213379469434832,0.7615460300532131
bug,0.722662440570523,0.41454545454545455,0.5268630849220105,0.765458920512112
bug,0.7311320754716981,0.4196750902527076,0.533256880733945,0.7721362439448972
bug,0.7204968944099379,0.4377358490566038,0.5446009389671362,0.7711432706900752
bug,0.6833855799373041,0.4078578110383536,0.5108377270064441,0.7640993400502486
bug,0.7059724349157733,0.4171945701357466,0.5244596131968146,0.7600307021273173
bug,0.7047619047619048,0.40921658986175113,0.5177842565597668,0.761523633440142
