type,p,r,f1,auc
resource,0.6622222222222223,0.3097713097713098,0.4220963172804533,0.7611977975837338
resource,0.6842105263157895,0.2943396226415094,0.41160949868073876,0.7639950499823214
resource,0.6954314720812182,0.2655038759689923,0.38429172510518933,0.7397497259415864
resource,0.6767241379310345,0.3007662835249042,0.41644562334217505,0.7579245839573163
resource,0.7169811320754716,0.2895238095238095,0.41248303934871094,0.7461609919625187
resource,0.6746411483253588,0.2925311203319502,0.4081041968162084,0.7613590060508927
resource,0.7112299465240641,0.24906367041198502,0.3689320388349514,0.7676518134383303
resource,0.631336405529954,0.2767676767676768,0.3848314606741573,0.727109807754969
resource,0.6930232558139535,0.3040816326530612,0.4226950354609929,0.7656557845543489
resource,0.7130434782608696,0.328,0.4493150684931507,0.769751661129568
resource,0.6682464454976303,0.282,0.3966244725738397,0.7490905315614618
resource,0.714975845410628,0.2824427480916031,0.40492476060191523,0.7575761741493078
resource,0.6966824644549763,0.28823529411764703,0.4077669902912621,0.7651500968896772
resource,0.7067307692307693,0.28,0.40109140518417463,0.736730077951452
resource,0.6981981981981982,0.28703703703703703,0.40682414698162733,0.7524349306351025
resource,0.6683673469387755,0.25,0.3638888888888889,0.7484393194462414
resource,0.7010309278350515,0.26666666666666666,0.38636363636363635,0.7670041383387526
resource,0.7050691244239631,0.30538922155688625,0.42618384401114207,0.7495789800283058
resource,0.714975845410628,0.2868217054263566,0.40940525587828497,0.766066674496907
resource,0.7354497354497355,0.25884543761638734,0.38292011019283745,0.7659830630992901
resource,0.7083333333333334,0.2625482625482625,0.3830985915492957,0.7589525806220578
resource,0.6863636363636364,0.3075356415478615,0.4247538677918425,0.7633646359953189
resource,0.6375,0.3103448275862069,0.417462482946794,0.7469218103825146
resource,0.6728110599078341,0.2908366533864542,0.4061196105702365,0.765865821240827
resource,0.6495726495726496,0.3064516129032258,0.41643835616438357,0.7478495179982909
resource,0.7121951219512195,0.2813102119460501,0.40331491712707185,0.748276058307521
resource,0.652542372881356,0.2972972972972973,0.40848806366047746,0.7432554513077279
resource,0.6512605042016807,0.302734375,0.4133333333333334,0.7487260447252517
resource,0.7397260273972602,0.3016759776536313,0.42857142857142866,0.7593058008964717
resource,0.6587677725118484,0.2757936507936508,0.3888111888111888,0.7472767857142857
resource,0.7019230769230769,0.27703984819734345,0.3972789115646258,0.769053119644547
resource,0.7061855670103093,0.2751004016064257,0.3959537572254335,0.7543715492151025
resource,0.6912442396313364,0.28846153846153844,0.40705563093622793,0.7469009875259875
resource,0.719626168224299,0.2916666666666667,0.41509433962264153,0.737279523551845
resource,0.6948356807511737,0.2819047619047619,0.40108401084010836,0.7684026010743568
resource,0.6778846153846154,0.27865612648221344,0.39495798319327735,0.7570390703874046
resource,0.7079646017699115,0.30710172744721687,0.428380187416332,0.762830923690218
resource,0.6600985221674877,0.2768595041322314,0.39010189228529846,0.7411766698279366
resource,0.6756756756756757,0.28846153846153844,0.4043126684636118,0.7531055093555094
resource,0.6558139534883721,0.2611111111111111,0.37350993377483444,0.7450434326078657
resource,0.6597510373443983,0.30518234165067176,0.41732283464566927,0.7592622938850607
resource,0.5948275862068966,0.2782258064516129,0.3791208791208791,0.7477660689489425
resource,0.6984924623115578,0.2785571142284569,0.39828080229226365,0.7451583665255823
resource,0.7227722772277227,0.2659380692167577,0.38881491344873503,0.758696252138875
resource,0.6751054852320675,0.3187250996015936,0.4330175913396482,0.7614533546347058
resource,0.6909871244635193,0.3169291338582677,0.4345479082321188,0.7626487899296869
resource,0.6666666666666666,0.25523809523809526,0.36914600550964194,0.7544472716991801
resource,0.6887966804979253,0.3333333333333333,0.449255751014885,0.7541226264927038
resource,0.6601941747572816,0.265625,0.3788300835654596,0.7503088624685402
resource,0.6862745098039216,0.2766798418972332,0.3943661971830986,0.7477762674285865
