type,p,r,f1,auc
others,0.667574931880109,0.44545454545454544,0.5343511450381678,0.7458999245120241
others,0.6823529411764706,0.4172661870503597,0.5178571428571429,0.7250715556586989
others,0.6760204081632653,0.46819787985865724,0.5532359081419624,0.7355100174755705
others,0.6685393258426966,0.4272890484739677,0.5213581599123768,0.7252089543264069
others,0.6861111111111111,0.4515539305301645,0.5446527012127893,0.7459590459026454
others,0.7092651757188498,0.40217391304347827,0.5132947976878613,0.7463865050233504
others,0.643646408839779,0.455078125,0.5331807780320367,0.7567760800936436
others,0.647887323943662,0.4197080291970803,0.5094130675526024,0.7392033429793116
others,0.6696428571428571,0.39752650176678445,0.4988913525498891,0.7279728765472716
others,0.6551724137931034,0.4442446043165468,0.5294748124330119,0.7359316847597192
others,0.691358024691358,0.39646017699115044,0.5039370078740157,0.7402141849429268
others,0.6603260869565217,0.4602272727272727,0.5424107142857143,0.7473868015414258
others,0.6893491124260355,0.4221014492753623,0.5235955056179775,0.7382461786348206
others,0.6513513513513514,0.43112701252236135,0.5188374596340151,0.7276600901747297
others,0.6863270777479893,0.4507042253521127,0.5441020191285866,0.7468267178830559
others,0.6537396121883656,0.4338235294117647,0.5215469613259669,0.7301626480981085
others,0.6722222222222223,0.42907801418439717,0.5238095238095238,0.7372517944374578
others,0.6900584795321637,0.4338235294117647,0.5327313769751694,0.7543379321693342
others,0.7027863777089783,0.3989455184534271,0.5089686098654708,0.734309681437371
others,0.6702702702702703,0.44684684684684683,0.5362162162162162,0.7373594358081231
others,0.707774798927614,0.4647887323943662,0.5611052072263549,0.7359891165172855
others,0.6596858638743456,0.4790874524714829,0.5550660792951542,0.7413703123835086
others,0.6487935656836461,0.45660377358490567,0.5359911406423035,0.7266140492796083
others,0.7008797653958945,0.42908438061041293,0.532293986636971,0.7443681118088186
others,0.6414565826330533,0.4288389513108614,0.5140291806958475,0.7224801942856645
others,0.6657381615598886,0.4543726235741445,0.5401129943502826,0.7436398401901579
others,0.6807909604519774,0.43897996357012753,0.5337763012181617,0.7403044311501308
others,0.6637168141592921,0.39752650176678445,0.49723756906077343,0.7322392230421165
others,0.6676829268292683,0.39107142857142857,0.4932432432432433,0.7222656919910821
others,0.7108433734939759,0.41114982578397213,0.5209713024282561,0.7449362484205689
others,0.6712707182320442,0.45,0.5388026607538803,0.7349366071816248
others,0.6548672566371682,0.39015817223198596,0.4889867841409692,0.726020355930179
others,0.6771428571428572,0.43327239488117003,0.5284280936454849,0.7362542732549345
others,0.7068965517241379,0.44972577696526506,0.5497206703910614,0.7584298192159252
others,0.6578171091445427,0.4191729323308271,0.5120551090700345,0.7321275750351488
others,0.6497326203208557,0.44424131627056673,0.5276872964169382,0.7236106249000566
others,0.6996996996996997,0.4094903339191564,0.516629711751663,0.7449408773695975
others,0.6845070422535211,0.44181818181818183,0.5370165745856353,0.7516175994823682
others,0.6411609498680739,0.4347048300536673,0.5181236673773987,0.7310062504558071
others,0.6434108527131783,0.4543795620437956,0.532620320855615,0.7271649462272708
others,0.6301369863013698,0.42435424354243545,0.5071664829106945,0.7209371653058482
others,0.6473988439306358,0.41869158878504675,0.5085130533484676,0.7150153584733024
others,0.69164265129683,0.4247787610619469,0.5263157894736842,0.7444551323158479
others,0.6543535620052771,0.4635514018691589,0.5426695842450765,0.7496743132257151
others,0.6572237960339944,0.4084507042253521,0.5038002171552661,0.7182159624413146
others,0.6711590296495957,0.45940959409594095,0.5454545454545454,0.7410914444044558
others,0.6753246753246753,0.47619047619047616,0.5585392051557466,0.7372432762043152
others,0.6657142857142857,0.439622641509434,0.5295454545454545,0.7446380550514878
others,0.6941176470588235,0.4075993091537133,0.5136017410228509,0.7340411537302729
others,0.7155172413793104,0.43455497382198954,0.5407166123778503,0.7577874260417997
