type,p,r,f1,auc
resource,0.6868686868686869,0.422360248447205,0.5230769230769231,0.8117672083723305
resource,0.6805555555555556,0.3202614379084967,0.43555555555555553,0.7837354781054513
resource,0.6326530612244898,0.4305555555555556,0.512396694214876,0.7950752617801047
resource,0.6626506024096386,0.3716216216216216,0.4761904761904761,0.8028474903474904
resource,0.6987951807228916,0.3515151515151515,0.46774193548387094,0.8090741207084697
resource,0.6632653061224489,0.42207792207792205,0.5158730158730158,0.8040078201368523
resource,0.6868686868686869,0.43037974683544306,0.5291828793774319,0.7864440011007154
resource,0.7027027027027027,0.3333333333333333,0.4521739130434782,0.7995148995148995
resource,0.7802197802197802,0.4226190476190476,0.5482625482625483,0.8472582468741686
resource,0.7159090909090909,0.3888888888888889,0.504,0.8050892009225342
resource,0.6987951807228916,0.36942675159235666,0.48333333333333334,0.8029965649974972
resource,0.7045454545454546,0.4,0.5102880658436215,0.8099295713416225
resource,0.7236842105263158,0.3216374269005848,0.4453441295546559,0.8021085577794251
resource,0.6736842105263158,0.423841059602649,0.5203252032520325,0.8216600441501104
resource,0.6511627906976745,0.36363636363636365,0.46666666666666673,0.7830522971652004
resource,0.6951219512195121,0.3877551020408163,0.4978165938864629,0.7834347459300343
resource,0.654320987654321,0.3732394366197183,0.4753363228699552,0.7740610328638498
resource,0.6875,0.3503184713375796,0.4641350210970464,0.805482194949338
resource,0.675,0.35526315789473684,0.4655172413793103,0.8000721221502956
resource,0.6448598130841121,0.44805194805194803,0.5287356321839081,0.7993646138807429
resource,0.660377358490566,0.445859872611465,0.532319391634981,0.8198781350870834
resource,0.6705882352941176,0.36538461538461536,0.4730290456431535,0.7820945945945946
resource,0.6781609195402298,0.37341772151898733,0.4816326530612245,0.8270328838745185
resource,0.7411764705882353,0.42567567567567566,0.5407725321888411,0.8350225225225225
resource,0.6145833333333334,0.3782051282051282,0.46825396825396826,0.7965523215523216
resource,0.675,0.3624161073825503,0.4716157205240175,0.8285297206843145
resource,0.711340206185567,0.4394904458598726,0.5433070866141733,0.8207239397234737
resource,0.7126436781609196,0.4217687074829932,0.5299145299145299,0.7911887710229211
resource,0.625,0.40540540540540543,0.4918032786885246,0.7982982982982983
resource,0.6210526315789474,0.39072847682119205,0.4796747967479674,0.8009183222958057
resource,0.651685393258427,0.3918918918918919,0.48945147679324896,0.7967878592878593
resource,0.6458333333333334,0.39490445859872614,0.4901185770750988,0.7967652287987848
resource,0.684931506849315,0.33112582781456956,0.4464285714285714,0.804317880794702
resource,0.6666666666666666,0.38271604938271603,0.48627450980392145,0.7785324243657576
resource,0.6941176470588235,0.3532934131736527,0.46825396825396826,0.8314012643237203
resource,0.6019417475728155,0.42758620689655175,0.5,0.7804597701149425
resource,0.7195121951219512,0.38311688311688313,0.5,0.7995217148442955
resource,0.6986301369863014,0.3355263157894737,0.4533333333333334,0.8030889389248522
resource,0.7142857142857143,0.4491017964071856,0.5514705882352942,0.8125948659783497
resource,0.6627906976744186,0.35625,0.46341463414634143,0.7948258196721312
resource,0.6705882352941176,0.36774193548387096,0.475,0.820832971045996
resource,0.7012987012987013,0.33962264150943394,0.4576271186440678,0.7936095830548557
resource,0.6526315789473685,0.3974358974358974,0.4940239043824702,0.796491683991684
resource,0.6388888888888888,0.3150684931506849,0.42201834862385323,0.7919520547945206
resource,0.6836734693877551,0.3941176470588235,0.5,0.7763053536021151
resource,0.6888888888888889,0.389937106918239,0.49799196787148586,0.8046887049509023
resource,0.651685393258427,0.3945578231292517,0.4915254237288135,0.7950837327015239
resource,0.75,0.38181818181818183,0.5060240963855421,0.8014857718458827
resource,0.6018518518518519,0.4304635761589404,0.5019305019305019,0.8088830022075055
resource,0.6835443037974683,0.35064935064935066,0.46351931330472096,0.8010054461667365
