type,p,r,f1,auc
refactoring,0.44,0.6470588235294118,0.5238095238095238,0.59846547314578
refactoring,0.9,0.6923076923076923,0.7826086956521738,0.8131868131868132
refactoring,0.75,0.5714285714285714,0.6486486486486486,0.6441102756892231
refactoring,0.7222222222222222,0.65,0.6842105263157895,0.7075
refactoring,0.5925925925925926,0.7619047619047619,0.6666666666666666,0.6854636591478697
refactoring,0.8421052631578947,0.7619047619047619,0.8,0.8546365914786967
refactoring,0.5217391304347826,0.7058823529411765,0.6,0.5843989769820972
refactoring,0.7,0.6666666666666666,0.6829268292682926,0.7343358395989975
refactoring,0.6,0.6666666666666666,0.631578947368421,0.6856060606060606
refactoring,0.6,0.7894736842105263,0.6818181818181819,0.6892230576441103
refactoring,0.7857142857142857,0.5,0.6111111111111112,0.6704545454545454
refactoring,0.5789473684210527,0.5789473684210527,0.5789473684210527,0.6766917293233082
refactoring,0.5714285714285714,0.6666666666666666,0.6153846153846153,0.696969696969697
refactoring,0.7058823529411765,0.5454545454545454,0.6153846153846153,0.6792929292929293
refactoring,0.6666666666666666,0.45454545454545453,0.5405405405405405,0.6578282828282829
refactoring,0.6666666666666666,0.8421052631578947,0.744186046511628,0.793233082706767
refactoring,0.6956521739130435,0.7619047619047619,0.7272727272727272,0.7406015037593985
refactoring,0.6111111111111112,0.5789473684210527,0.5945945945945946,0.6090225563909775
refactoring,0.6666666666666666,0.7272727272727273,0.6956521739130435,0.7323232323232324
refactoring,0.6666666666666666,0.6086956521739131,0.6363636363636365,0.7468030690537084
refactoring,0.48,0.6666666666666666,0.5581395348837209,0.5555555555555556
refactoring,0.6363636363636364,0.6363636363636364,0.6363636363636364,0.6363636363636364
refactoring,0.48148148148148145,0.8666666666666667,0.6190476190476191,0.772
refactoring,0.8181818181818182,0.375,0.5142857142857142,0.6028645833333334
refactoring,0.625,0.75,0.6818181818181818,0.7175
refactoring,0.7727272727272727,0.7391304347826086,0.7555555555555555,0.7416879795396419
refactoring,0.6666666666666666,0.6363636363636364,0.6511627906976744,0.6578282828282829
refactoring,0.7142857142857143,0.7142857142857143,0.7142857142857143,0.7619047619047619
refactoring,0.4642857142857143,0.7222222222222222,0.5652173913043479,0.6515151515151515
refactoring,0.65,0.6190476190476191,0.6341463414634146,0.6967418546365914
refactoring,0.5789473684210527,0.6470588235294118,0.6111111111111113,0.6815856777493606
refactoring,0.4782608695652174,0.7857142857142857,0.5945945945945946,0.804945054945055
refactoring,0.7142857142857143,0.45454545454545453,0.5555555555555556,0.5845959595959596
refactoring,0.7692307692307693,0.43478260869565216,0.5555555555555555,0.6278772378516624
refactoring,0.47058823529411764,0.42105263157894735,0.4444444444444444,0.47368421052631576
refactoring,0.6363636363636364,0.6086956521739131,0.6222222222222223,0.6521739130434783
refactoring,0.6363636363636364,0.6666666666666666,0.6511627906976744,0.6102756892230576
refactoring,0.6666666666666666,0.8,0.7272727272727272,0.73625
refactoring,0.7222222222222222,0.5909090909090909,0.65,0.7095959595959596
refactoring,0.7222222222222222,0.6190476190476191,0.6666666666666666,0.7142857142857143
refactoring,0.5714285714285714,0.6666666666666666,0.6153846153846153,0.7297979797979798
refactoring,0.7368421052631579,0.7,0.717948717948718,0.735
refactoring,0.5,0.8,0.6153846153846154,0.736
refactoring,0.5789473684210527,0.5,0.5365853658536586,0.553030303030303
refactoring,0.7222222222222222,0.6190476190476191,0.6666666666666666,0.7142857142857143
refactoring,0.625,0.7142857142857143,0.6666666666666666,0.7080200501253133
refactoring,0.5,0.47619047619047616,0.4878048780487805,0.5263157894736842
refactoring,0.5,0.6470588235294118,0.5641025641025642,0.7058823529411765
refactoring,0.7647058823529411,0.52,0.6190476190476191,0.6906666666666667
refactoring,0.6,0.6,0.6,0.68
